{
  "id": "myaddon",
  "api": {
    "config_vars": [ "MYADDON_URL" ],
    "requires": [],
    "regions": [ "us" ],
    "password": "531fe5d8558846c99383ad4cad196d66",
    "sso_salt": "b8f0e46bb9d7b0ca4cf35a21bcb8ff97",
    "production": {
      "base_url": "https://yourapp.com/heroku/resources",
      "sso_url": "https://yourapp.com/sso/login"
    },
    "test": {
      "base_url": "http://localhost:3000/heroku/resources",
      "sso_url": "http://localhost:3000/sso/login",
      "message": "Your add-on is being provisioned. It will be available shortly."
    }
  }
}
